%!PS-Adobe-3.0 EPSF-3.0
%%Creator: (MATLAB, The Mathworks, Inc. Version 8.5.0.197613 \(R2015a\). Operating System: Windows 8)
%%Title: C:/Users/tiduq/OneDrive/Documentos/Mao_Bionica/Mao_Bionica/Imagens/group/group_nn_confusion.eps
%%CreationDate: 2019-04-01T20:44:33
%%Pages: (atend)
%%BoundingBox: 0 0 375 375
%%LanguageLevel: 2
%%EndComments
%%BeginProlog
%%BeginResource: procset (Apache XML Graphics Std ProcSet) 1.2 0
%%Version: 1.2 0
%%Copyright: (Copyright 2001-2003,2010 The Apache Software Foundation. License terms: http://www.apache.org/licenses/LICENSE-2.0)
/bd{bind def}bind def
/ld{load def}bd
/GR/grestore ld
/M/moveto ld
/LJ/setlinejoin ld
/C/curveto ld
/f/fill ld
/LW/setlinewidth ld
/GC/setgray ld
/t/show ld
/N/newpath ld
/CT/concat ld
/cp/closepath ld
/S/stroke ld
/L/lineto ld
/CC/setcmykcolor ld
/A/ashow ld
/GS/gsave ld
/RC/setrgbcolor ld
/RM/rmoveto ld
/ML/setmiterlimit ld
/re {4 2 roll M
1 index 0 rlineto
0 exch rlineto
neg 0 rlineto
cp } bd
/_ctm matrix def
/_tm matrix def
/BT { _ctm currentmatrix pop matrix _tm copy pop 0 0 moveto } bd
/ET { _ctm setmatrix } bd
/iTm { _ctm setmatrix _tm concat } bd
/Tm { _tm astore pop iTm 0 0 moveto } bd
/ux 0.0 def
/uy 0.0 def
/F {
  /Tp exch def
  /Tf exch def
  Tf findfont Tp scalefont setfont
  /cf Tf def  /cs Tp def
} bd
/ULS {currentpoint /uy exch def /ux exch def} bd
/ULE {
  /Tcx currentpoint pop def
  gsave
  newpath
  cf findfont cs scalefont dup
  /FontMatrix get 0 get /Ts exch def /FontInfo get dup
  /UnderlinePosition get Ts mul /To exch def
  /UnderlineThickness get Ts mul /Tt exch def
  ux uy To add moveto  Tcx uy To add lineto
  Tt setlinewidth stroke
  grestore
} bd
/OLE {
  /Tcx currentpoint pop def
  gsave
  newpath
  cf findfont cs scalefont dup
  /FontMatrix get 0 get /Ts exch def /FontInfo get dup
  /UnderlinePosition get Ts mul /To exch def
  /UnderlineThickness get Ts mul /Tt exch def
  ux uy To add cs add moveto Tcx uy To add cs add lineto
  Tt setlinewidth stroke
  grestore
} bd
/SOE {
  /Tcx currentpoint pop def
  gsave
  newpath
  cf findfont cs scalefont dup
  /FontMatrix get 0 get /Ts exch def /FontInfo get dup
  /UnderlinePosition get Ts mul /To exch def
  /UnderlineThickness get Ts mul /Tt exch def
  ux uy To add cs 10 mul 26 idiv add moveto Tcx uy To add cs 10 mul 26 idiv add lineto
  Tt setlinewidth stroke
  grestore
} bd
/QT {
/Y22 exch store
/X22 exch store
/Y21 exch store
/X21 exch store
currentpoint
/Y21 load 2 mul add 3 div exch
/X21 load 2 mul add 3 div exch
/X21 load 2 mul /X22 load add 3 div
/Y21 load 2 mul /Y22 load add 3 div
/X22 load /Y22 load curveto
} bd
/SSPD {
dup length /d exch dict def
{
/v exch def
/k exch def
currentpagedevice k known {
/cpdv currentpagedevice k get def
v cpdv ne {
/upd false def
/nullv v type /nulltype eq def
/nullcpdv cpdv type /nulltype eq def
nullv nullcpdv or
{
/upd true def
} {
/sametype v type cpdv type eq def
sametype {
v type /arraytype eq {
/vlen v length def
/cpdvlen cpdv length def
vlen cpdvlen eq {
0 1 vlen 1 sub {
/i exch def
/obj v i get def
/cpdobj cpdv i get def
obj cpdobj ne {
/upd true def
exit
} if
} for
} {
/upd true def
} ifelse
} {
v type /dicttype eq {
v {
/dv exch def
/dk exch def
/cpddv cpdv dk get def
dv cpddv ne {
/upd true def
exit
} if
} forall
} {
/upd true def
} ifelse
} ifelse
} if
} ifelse
upd true eq {
d k v put
} if
} if
} if
} forall
d length 0 gt {
d setpagedevice
} if
} bd
%%EndResource
%%BeginResource: procset (Apache XML Graphics EPS ProcSet) 1.0 0
%%Version: 1.0 0
%%Copyright: (Copyright 2002-2003 The Apache Software Foundation. License terms: http://www.apache.org/licenses/LICENSE-2.0)
/BeginEPSF { %def
/b4_Inc_state save def         % Save state for cleanup
/dict_count countdictstack def % Count objects on dict stack
/op_count count 1 sub def      % Count objects on operand stack
userdict begin                 % Push userdict on dict stack
/showpage { } def              % Redefine showpage, { } = null proc
0 setgray 0 setlinecap         % Prepare graphics state
1 setlinewidth 0 setlinejoin
10 setmiterlimit [ ] 0 setdash newpath
/languagelevel where           % If level not equal to 1 then
{pop languagelevel             % set strokeadjust and
1 ne                           % overprint to their defaults.
{false setstrokeadjust false setoverprint
} if
} if
} bd
/EndEPSF { %def
count op_count sub {pop} repeat            % Clean up stacks
countdictstack dict_count sub {end} repeat
b4_Inc_state restore
} bd
%%EndResource
%FOPBeginFontDict
%%IncludeResource: font Courier-Bold
%%IncludeResource: font Helvetica
%%IncludeResource: font Courier-BoldOblique
%%IncludeResource: font Courier-Oblique
%%IncludeResource: font Times-Roman
%%IncludeResource: font Helvetica-BoldOblique
%%IncludeResource: font Helvetica-Bold
%%IncludeResource: font Helvetica-Oblique
%%IncludeResource: font Times-BoldItalic
%%IncludeResource: font Courier
%%IncludeResource: font Times-Italic
%%IncludeResource: font Times-Bold
%%IncludeResource: font Symbol
%%IncludeResource: font ZapfDingbats
%FOPEndFontDict
%%BeginResource: encoding WinAnsiEncoding
/WinAnsiEncoding [
/.notdef /.notdef /.notdef /.notdef /.notdef
/.notdef /.notdef /.notdef /.notdef /.notdef
/.notdef /.notdef /.notdef /.notdef /.notdef
/.notdef /.notdef /.notdef /.notdef /.notdef
/.notdef /.notdef /.notdef /.notdef /.notdef
/.notdef /.notdef /.notdef /.notdef /.notdef
/.notdef /.notdef /space /exclam /quotedbl
/numbersign /dollar /percent /ampersand /quotesingle
/parenleft /parenright /asterisk /plus /comma
/hyphen /period /slash /zero /one
/two /three /four /five /six
/seven /eight /nine /colon /semicolon
/less /equal /greater /question /at
/A /B /C /D /E
/F /G /H /I /J
/K /L /M /N /O
/P /Q /R /S /T
/U /V /W /X /Y
/Z /bracketleft /backslash /bracketright /asciicircum
/underscore /quoteleft /a /b /c
/d /e /f /g /h
/i /j /k /l /m
/n /o /p /q /r
/s /t /u /v /w
/x /y /z /braceleft /bar
/braceright /asciitilde /bullet /Euro /bullet
/quotesinglbase /florin /quotedblbase /ellipsis /dagger
/daggerdbl /circumflex /perthousand /Scaron /guilsinglleft
/OE /bullet /Zcaron /bullet /bullet
/quoteleft /quoteright /quotedblleft /quotedblright /bullet
/endash /emdash /asciitilde /trademark /scaron
/guilsinglright /oe /bullet /zcaron /Ydieresis
/space /exclamdown /cent /sterling /currency
/yen /brokenbar /section /dieresis /copyright
/ordfeminine /guillemotleft /logicalnot /sfthyphen /registered
/macron /degree /plusminus /twosuperior /threesuperior
/acute /mu /paragraph /middot /cedilla
/onesuperior /ordmasculine /guillemotright /onequarter /onehalf
/threequarters /questiondown /Agrave /Aacute /Acircumflex
/Atilde /Adieresis /Aring /AE /Ccedilla
/Egrave /Eacute /Ecircumflex /Edieresis /Igrave
/Iacute /Icircumflex /Idieresis /Eth /Ntilde
/Ograve /Oacute /Ocircumflex /Otilde /Odieresis
/multiply /Oslash /Ugrave /Uacute /Ucircumflex
/Udieresis /Yacute /Thorn /germandbls /agrave
/aacute /acircumflex /atilde /adieresis /aring
/ae /ccedilla /egrave /eacute /ecircumflex
/edieresis /igrave /iacute /icircumflex /idieresis
/eth /ntilde /ograve /oacute /ocircumflex
/otilde /odieresis /divide /oslash /ugrave
/uacute /ucircumflex /udieresis /yacute /thorn
/ydieresis
] def
%%EndResource
%FOPBeginFontReencode
/Courier-Bold findfont
dup length dict begin
  {1 index /FID ne {def} {pop pop} ifelse} forall
  /Encoding WinAnsiEncoding def
  currentdict
end
/Courier-Bold exch definefont pop
/Helvetica findfont
dup length dict begin
  {1 index /FID ne {def} {pop pop} ifelse} forall
  /Encoding WinAnsiEncoding def
  currentdict
end
/Helvetica exch definefont pop
/Courier-BoldOblique findfont
dup length dict begin
  {1 index /FID ne {def} {pop pop} ifelse} forall
  /Encoding WinAnsiEncoding def
  currentdict
end
/Courier-BoldOblique exch definefont pop
/Courier-Oblique findfont
dup length dict begin
  {1 index /FID ne {def} {pop pop} ifelse} forall
  /Encoding WinAnsiEncoding def
  currentdict
end
/Courier-Oblique exch definefont pop
/Times-Roman findfont
dup length dict begin
  {1 index /FID ne {def} {pop pop} ifelse} forall
  /Encoding WinAnsiEncoding def
  currentdict
end
/Times-Roman exch definefont pop
/Helvetica-BoldOblique findfont
dup length dict begin
  {1 index /FID ne {def} {pop pop} ifelse} forall
  /Encoding WinAnsiEncoding def
  currentdict
end
/Helvetica-BoldOblique exch definefont pop
/Helvetica-Bold findfont
dup length dict begin
  {1 index /FID ne {def} {pop pop} ifelse} forall
  /Encoding WinAnsiEncoding def
  currentdict
end
/Helvetica-Bold exch definefont pop
/Helvetica-Oblique findfont
dup length dict begin
  {1 index /FID ne {def} {pop pop} ifelse} forall
  /Encoding WinAnsiEncoding def
  currentdict
end
/Helvetica-Oblique exch definefont pop
/Times-BoldItalic findfont
dup length dict begin
  {1 index /FID ne {def} {pop pop} ifelse} forall
  /Encoding WinAnsiEncoding def
  currentdict
end
/Times-BoldItalic exch definefont pop
/Courier findfont
dup length dict begin
  {1 index /FID ne {def} {pop pop} ifelse} forall
  /Encoding WinAnsiEncoding def
  currentdict
end
/Courier exch definefont pop
/Times-Italic findfont
dup length dict begin
  {1 index /FID ne {def} {pop pop} ifelse} forall
  /Encoding WinAnsiEncoding def
  currentdict
end
/Times-Italic exch definefont pop
/Times-Bold findfont
dup length dict begin
  {1 index /FID ne {def} {pop pop} ifelse} forall
  /Encoding WinAnsiEncoding def
  currentdict
end
/Times-Bold exch definefont pop
%FOPEndFontReencode
%%EndProlog
%%Page: 1 1
%%PageBoundingBox: 0 0 375 375
%%BeginPageSetup
[1 0 0 -1 0 375] CT
%%EndPageSetup
GS
[0.75 0 0 0.75 0 0] CT
1 GC
N
0 0 500 500 re
f
GR
GS
[0.75 0 0 0.75 0 0] CT
1 GC
N
0 0 500 500 re
f
GR
GS
[0.75 0 0 0.75 0 0] CT
1 GC
N
453 47 M
65 47 L
65 435 L
453 435 L
cp
f
GR
GS
[0.75 0 0 0.75 194.25014 343.99999] CT
0.149 GC
/Helvetica-Bold 16 F
GS
[1 0 0 1 0 0] CT
-48.5 17 moveto 
1 -1 scale
(Target Class) t 
GR
GR
GS
[0.75 0 0 0.75 0 0] CT
0.149 GC
2 setlinecap
10.0 ML
N
65 435 M
453 435 L
S
GR
GS
[0.75 0 0 0.75 0 0] CT
0.149 GC
2 setlinecap
10.0 ML
N
65 47 M
453 47 L
S
GR
GS
[0.75 0 0 0.75 0 0] CT
0.149 GC
2 setlinecap
10.0 ML
N
89.25 435 M
89.25 435 L
S
GR
GS
[0.75 0 0 0.75 0 0] CT
0.149 GC
2 setlinecap
10.0 ML
N
137.75 435 M
137.75 435 L
S
GR
GS
[0.75 0 0 0.75 0 0] CT
0.149 GC
2 setlinecap
10.0 ML
N
186.25 435 M
186.25 435 L
S
GR
GS
[0.75 0 0 0.75 0 0] CT
0.149 GC
2 setlinecap
10.0 ML
N
234.75 435 M
234.75 435 L
S
GR
GS
[0.75 0 0 0.75 0 0] CT
0.149 GC
2 setlinecap
10.0 ML
N
283.25 435 M
283.25 435 L
S
GR
GS
[0.75 0 0 0.75 0 0] CT
0.149 GC
2 setlinecap
10.0 ML
N
331.75 435 M
331.75 435 L
S
GR
GS
[0.75 0 0 0.75 0 0] CT
0.149 GC
2 setlinecap
10.0 ML
N
380.25 435 M
380.25 435 L
S
GR
GS
[0.75 0 0 0.75 0 0] CT
0.149 GC
2 setlinecap
10.0 ML
N
428.75 435 M
428.75 435 L
S
GR
GS
[0.75 0 0 0.75 0 0] CT
0.149 GC
2 setlinecap
10.0 ML
N
89.25 47 M
89.25 47 L
S
GR
GS
[0.75 0 0 0.75 0 0] CT
0.149 GC
2 setlinecap
10.0 ML
N
137.75 47 M
137.75 47 L
S
GR
GS
[0.75 0 0 0.75 0 0] CT
0.149 GC
2 setlinecap
10.0 ML
N
186.25 47 M
186.25 47 L
S
GR
GS
[0.75 0 0 0.75 0 0] CT
0.149 GC
2 setlinecap
10.0 ML
N
234.75 47 M
234.75 47 L
S
GR
GS
[0.75 0 0 0.75 0 0] CT
0.149 GC
2 setlinecap
10.0 ML
N
283.25 47 M
283.25 47 L
S
GR
GS
[0.75 0 0 0.75 0 0] CT
0.149 GC
2 setlinecap
10.0 ML
N
331.75 47 M
331.75 47 L
S
GR
GS
[0.75 0 0 0.75 0 0] CT
0.149 GC
2 setlinecap
10.0 ML
N
380.25 47 M
380.25 47 L
S
GR
GS
[0.75 0 0 0.75 0 0] CT
0.149 GC
2 setlinecap
10.0 ML
N
428.75 47 M
428.75 47 L
S
GR
GS
[0.75 0 0 0.75 66.9375 330.24998] CT
0.149 GC
/Helvetica 13 F
GS
[1 0 0 1 0 0] CT
-4 14 moveto 
1 -1 scale
(1) t 
GR
GR
GS
[0.75 0 0 0.75 103.3125 330.24998] CT
0.149 GC
/Helvetica 13 F
GS
[1 0 0 1 0 0] CT
-4 14 moveto 
1 -1 scale
(2) t 
GR
GR
GS
[0.75 0 0 0.75 139.6875 330.24998] CT
0.149 GC
/Helvetica 13 F
GS
[1 0 0 1 0 0] CT
-4 14 moveto 
1 -1 scale
(3) t 
GR
GR
GS
[0.75 0 0 0.75 176.0625 330.24998] CT
0.149 GC
/Helvetica 13 F
GS
[1 0 0 1 0 0] CT
-4 14 moveto 
1 -1 scale
(4) t 
GR
GR
GS
[0.75 0 0 0.75 212.4375 330.24998] CT
0.149 GC
/Helvetica 13 F
GS
[1 0 0 1 0 0] CT
-4 14 moveto 
1 -1 scale
(5) t 
GR
GR
GS
[0.75 0 0 0.75 248.8125 330.24998] CT
0.149 GC
/Helvetica 13 F
GS
[1 0 0 1 0 0] CT
-4 14 moveto 
1 -1 scale
(6) t 
GR
GR
GS
[0.75 0 0 0.75 285.1875 330.24998] CT
0.149 GC
/Helvetica 13 F
GS
[1 0 0 1 0 0] CT
-4 14 moveto 
1 -1 scale
(7) t 
GR
GR
GS
[0 -0.75 0.75 0 35.75 180.74986] CT
0.149 GC
/Helvetica-Bold 16 F
GS
[1 0 0 1 0 0] CT
-50 -4 moveto 
1 -1 scale
(Output Class) t 
GR
GR
GS
[0.75 0 0 0.75 0 0] CT
0.149 GC
2 setlinecap
10.0 ML
N
65 47 M
65 435 L
S
GR
GS
[0.75 0 0 0.75 0 0] CT
0.149 GC
2 setlinecap
10.0 ML
N
453 47 M
453 435 L
S
GR
GS
[0.75 0 0 0.75 0 0] CT
0.149 GC
2 setlinecap
10.0 ML
N
65 71.25 M
65 71.25 L
S
GR
GS
[0.75 0 0 0.75 0 0] CT
0.149 GC
2 setlinecap
10.0 ML
N
65 119.75 M
65 119.75 L
S
GR
GS
[0.75 0 0 0.75 0 0] CT
0.149 GC
2 setlinecap
10.0 ML
N
65 168.25 M
65 168.25 L
S
GR
GS
[0.75 0 0 0.75 0 0] CT
0.149 GC
2 setlinecap
10.0 ML
N
65 216.75 M
65 216.75 L
S
GR
GS
[0.75 0 0 0.75 0 0] CT
0.149 GC
2 setlinecap
10.0 ML
N
65 265.25 M
65 265.25 L
S
GR
GS
[0.75 0 0 0.75 0 0] CT
0.149 GC
2 setlinecap
10.0 ML
N
65 313.75 M
65 313.75 L
S
GR
GS
[0.75 0 0 0.75 0 0] CT
0.149 GC
2 setlinecap
10.0 ML
N
65 362.25 M
65 362.25 L
S
GR
GS
[0.75 0 0 0.75 0 0] CT
0.149 GC
2 setlinecap
10.0 ML
N
65 410.75 M
65 410.75 L
S
GR
GS
[0.75 0 0 0.75 0 0] CT
0.149 GC
2 setlinecap
10.0 ML
N
453 71.25 M
453 71.25 L
S
GR
GS
[0.75 0 0 0.75 0 0] CT
0.149 GC
2 setlinecap
10.0 ML
N
453 119.75 M
453 119.75 L
S
GR
GS
[0.75 0 0 0.75 0 0] CT
0.149 GC
2 setlinecap
10.0 ML
N
453 168.25 M
453 168.25 L
S
GR
GS
[0.75 0 0 0.75 0 0] CT
0.149 GC
2 setlinecap
10.0 ML
N
453 216.75 M
453 216.75 L
S
GR
GS
[0.75 0 0 0.75 0 0] CT
0.149 GC
2 setlinecap
10.0 ML
N
453 265.25 M
453 265.25 L
S
GR
GS
[0.75 0 0 0.75 0 0] CT
0.149 GC
2 setlinecap
10.0 ML
N
453 313.75 M
453 313.75 L
S
GR
GS
[0.75 0 0 0.75 0 0] CT
0.149 GC
2 setlinecap
10.0 ML
N
453 362.25 M
453 362.25 L
S
GR
GS
[0.75 0 0 0.75 0 0] CT
0.149 GC
2 setlinecap
10.0 ML
N
453 410.75 M
453 410.75 L
S
GR
GS
[0.75 0 0 0.75 44.75 53.4375] CT
0.149 GC
/Helvetica 13 F
GS
[1 0 0 1 0 0] CT
-8 5.5 moveto 
1 -1 scale
(1) t 
GR
GR
GS
[0.75 0 0 0.75 44.75 89.8125] CT
0.149 GC
/Helvetica 13 F
GS
[1 0 0 1 0 0] CT
-8 5.5 moveto 
1 -1 scale
(2) t 
GR
GR
GS
[0.75 0 0 0.75 44.75 126.1875] CT
0.149 GC
/Helvetica 13 F
GS
[1 0 0 1 0 0] CT
-8 5.5 moveto 
1 -1 scale
(3) t 
GR
GR
GS
[0.75 0 0 0.75 44.75 162.5625] CT
0.149 GC
/Helvetica 13 F
GS
[1 0 0 1 0 0] CT
-8 5.5 moveto 
1 -1 scale
(4) t 
GR
GR
GS
[0.75 0 0 0.75 44.75 198.9375] CT
0.149 GC
/Helvetica 13 F
GS
[1 0 0 1 0 0] CT
-8 5.5 moveto 
1 -1 scale
(5) t 
GR
GR
GS
[0.75 0 0 0.75 44.75 235.3125] CT
0.149 GC
/Helvetica 13 F
GS
[1 0 0 1 0 0] CT
-8 5.5 moveto 
1 -1 scale
(6) t 
GR
GR
GS
[0.75 0 0 0.75 44.75 271.6875] CT
0.149 GC
/Helvetica 13 F
GS
[1 0 0 1 0 0] CT
-8 5.5 moveto 
1 -1 scale
(7) t 
GR
GR
GS
[0.75 0 0 0.75 0 0] CT
0.471 0.902 0.706 RC
N
65 47 M
113.5 47 L
113.5 95.5 L
cp
f
GR
GS
[0.75 0 0 0.75 0 0] CT
0.471 0.902 0.706 RC
N
65 47 M
113.5 95.5 L
65 95.5 L
cp
f
GR
GS
[0.75 0 0 0.75 0 0] CT
2 setlinecap
10.0 ML
N
65 47 M
113.5 47 L
113.5 95.5 L
65 95.5 L
65 47 L
S
GR
GS
[0.75 0 0 0.75 66.9375 53.4375] CT
/Helvetica-Bold 13 F
GS
[1 0 0 1 0 0] CT
-7.5 -3 moveto 
1 -1 scale
(15) t 
GR
GR
GS
[0.75 0 0 0.75 66.9375 53.4375] CT
/Helvetica 13 F
GS
[1 0 0 1 0 0] CT
-15 14 moveto 
1 -1 scale
(8.8%) t 
GR
GR
GS
[0.75 0 0 0.75 0 0] CT
0.902 0.549 0.549 RC
N
65 95.5 M
113.5 95.5 L
113.5 144 L
cp
f
GR
GS
[0.75 0 0 0.75 0 0] CT
0.902 0.549 0.549 RC
N
65 95.5 M
113.5 144 L
65 144 L
cp
f
GR
GS
[0.75 0 0 0.75 0 0] CT
2 setlinecap
10.0 ML
N
65 95.5 M
113.5 95.5 L
113.5 144 L
65 144 L
65 95.5 L
S
GR
GS
[0.75 0 0 0.75 66.9375 89.8125] CT
/Helvetica-Bold 13 F
GS
[1 0 0 1 0 0] CT
-4 -3 moveto 
1 -1 scale
(6) t 
GR
GR
GS
[0.75 0 0 0.75 66.9375 89.8125] CT
/Helvetica 13 F
GS
[1 0 0 1 0 0] CT
-15 14 moveto 
1 -1 scale
(3.5%) t 
GR
GR
GS
[0.75 0 0 0.75 0 0] CT
0.902 0.549 0.549 RC
N
65 144 M
113.5 144 L
113.5 192.5 L
cp
f
GR
GS
[0.75 0 0 0.75 0 0] CT
0.902 0.549 0.549 RC
N
65 144 M
113.5 192.5 L
65 192.5 L
cp
f
GR
GS
[0.75 0 0 0.75 0 0] CT
2 setlinecap
10.0 ML
N
65 144 M
113.5 144 L
113.5 192.5 L
65 192.5 L
65 144 L
S
GR
GS
[0.75 0 0 0.75 66.9375 126.1875] CT
/Helvetica-Bold 13 F
GS
[1 0 0 1 0 0] CT
-4 -3 moveto 
1 -1 scale
(0) t 
GR
GR
GS
[0.75 0 0 0.75 66.9375 126.1875] CT
/Helvetica 13 F
GS
[1 0 0 1 0 0] CT
-15 14 moveto 
1 -1 scale
(0.0%) t 
GR
GR
GS
[0.75 0 0 0.75 0 0] CT
0.902 0.549 0.549 RC
N
65 192.5 M
113.5 192.5 L
113.5 241 L
cp
f
GR
GS
[0.75 0 0 0.75 0 0] CT
0.902 0.549 0.549 RC
N
65 192.5 M
113.5 241 L
65 241 L
cp
f
GR
GS
[0.75 0 0 0.75 0 0] CT
2 setlinecap
10.0 ML
N
65 192.5 M
113.5 192.5 L
113.5 241 L
65 241 L
65 192.5 L
S
GR
GS
[0.75 0 0 0.75 66.9375 162.5625] CT
/Helvetica-Bold 13 F
GS
[1 0 0 1 0 0] CT
-4 -3 moveto 
1 -1 scale
(4) t 
GR
GR
GS
[0.75 0 0 0.75 66.9375 162.5625] CT
/Helvetica 13 F
GS
[1 0 0 1 0 0] CT
-15 14 moveto 
1 -1 scale
(2.4%) t 
GR
GR
GS
[0.75 0 0 0.75 0 0] CT
0.902 0.549 0.549 RC
N
65 241 M
113.5 241 L
113.5 289.5 L
cp
f
GR
GS
[0.75 0 0 0.75 0 0] CT
0.902 0.549 0.549 RC
N
65 241 M
113.5 289.5 L
65 289.5 L
cp
f
GR
GS
[0.75 0 0 0.75 0 0] CT
2 setlinecap
10.0 ML
N
65 241 M
113.5 241 L
113.5 289.5 L
65 289.5 L
65 241 L
S
GR
GS
[0.75 0 0 0.75 66.9375 198.9375] CT
/Helvetica-Bold 13 F
GS
[1 0 0 1 0 0] CT
-4 -3 moveto 
1 -1 scale
(0) t 
GR
GR
GS
[0.75 0 0 0.75 66.9375 198.9375] CT
/Helvetica 13 F
GS
[1 0 0 1 0 0] CT
-15 14 moveto 
1 -1 scale
(0.0%) t 
GR
GR
GS
[0.75 0 0 0.75 0 0] CT
0.902 0.549 0.549 RC
N
65 289.5 M
113.5 289.5 L
113.5 338 L
cp
f
GR
GS
[0.75 0 0 0.75 0 0] CT
0.902 0.549 0.549 RC
N
65 289.5 M
113.5 338 L
65 338 L
cp
f
GR
GS
[0.75 0 0 0.75 0 0] CT
2 setlinecap
10.0 ML
N
65 289.5 M
113.5 289.5 L
113.5 338 L
65 338 L
65 289.5 L
S
GR
GS
[0.75 0 0 0.75 66.9375 235.3125] CT
/Helvetica-Bold 13 F
GS
[1 0 0 1 0 0] CT
-4 -3 moveto 
1 -1 scale
(0) t 
GR
GR
GS
[0.75 0 0 0.75 66.9375 235.3125] CT
/Helvetica 13 F
GS
[1 0 0 1 0 0] CT
-15 14 moveto 
1 -1 scale
(0.0%) t 
GR
GR
GS
[0.75 0 0 0.75 0 0] CT
0.902 0.549 0.549 RC
N
65 338 M
113.5 338 L
113.5 386.5 L
cp
f
GR
GS
[0.75 0 0 0.75 0 0] CT
0.902 0.549 0.549 RC
N
65 338 M
113.5 386.5 L
65 386.5 L
cp
f
GR
GS
[0.75 0 0 0.75 0 0] CT
2 setlinecap
10.0 ML
N
65 338 M
113.5 338 L
113.5 386.5 L
65 386.5 L
65 338 L
S
GR
GS
[0.75 0 0 0.75 66.9375 271.6875] CT
/Helvetica-Bold 13 F
GS
[1 0 0 1 0 0] CT
-4 -3 moveto 
1 -1 scale
(0) t 
GR
GR
GS
[0.75 0 0 0.75 66.9375 271.6875] CT
/Helvetica 13 F
GS
[1 0 0 1 0 0] CT
-15 14 moveto 
1 -1 scale
(0.0%) t 
GR
GR
GS
[0.75 0 0 0.75 0 0] CT
0.502 GC
N
65 386.5 M
113.5 386.5 L
113.5 435 L
cp
f
GR
GS
[0.75 0 0 0.75 0 0] CT
0.502 GC
N
65 386.5 M
113.5 435 L
65 435 L
cp
f
GR
GS
[0.75 0 0 0.75 0 0] CT
2 setlinecap
10.0 ML
N
65 386.5 M
113.5 386.5 L
113.5 435 L
65 435 L
65 386.5 L
S
GR
GS
[0.75 0 0 0.75 66.9375 308.0625] CT
0 0.4 0 RC
/Helvetica 13 F
GS
[1 0 0 1 0 0] CT
-18.5 -3 moveto 
1 -1 scale
(60.0%) t 
GR
GR
GS
[0.75 0 0 0.75 66.9375 308.0625] CT
0.4 0 0 RC
/Helvetica 13 F
GS
[1 0 0 1 0 0] CT
-18.5 14 moveto 
1 -1 scale
(40.0%) t 
GR
GR
GS
[0.75 0 0 0.75 0 0] CT
0.902 0.549 0.549 RC
N
113.5 47 M
162 47 L
162 95.5 L
cp
f
GR
GS
[0.75 0 0 0.75 0 0] CT
0.902 0.549 0.549 RC
N
113.5 47 M
162 95.5 L
113.5 95.5 L
cp
f
GR
GS
[0.75 0 0 0.75 0 0] CT
2 setlinecap
10.0 ML
N
113.5 47 M
162 47 L
162 95.5 L
113.5 95.5 L
113.5 47 L
S
GR
GS
[0.75 0 0 0.75 103.3125 53.4375] CT
/Helvetica-Bold 13 F
GS
[1 0 0 1 0 0] CT
-7.5 -3 moveto 
1 -1 scale
(10) t 
GR
GR
GS
[0.75 0 0 0.75 103.3125 53.4375] CT
/Helvetica 13 F
GS
[1 0 0 1 0 0] CT
-15 14 moveto 
1 -1 scale
(5.9%) t 
GR
GR
GS
[0.75 0 0 0.75 0 0] CT
0.471 0.902 0.706 RC
N
113.5 95.5 M
162 95.5 L
162 144 L
cp
f
GR
GS
[0.75 0 0 0.75 0 0] CT
0.471 0.902 0.706 RC
N
113.5 95.5 M
162 144 L
113.5 144 L
cp
f
GR
GS
[0.75 0 0 0.75 0 0] CT
2 setlinecap
10.0 ML
N
113.5 95.5 M
162 95.5 L
162 144 L
113.5 144 L
113.5 95.5 L
S
GR
GS
[0.75 0 0 0.75 103.3125 89.8125] CT
/Helvetica-Bold 13 F
GS
[1 0 0 1 0 0] CT
-7.5 -3 moveto 
1 -1 scale
(11) t 
GR
GR
GS
[0.75 0 0 0.75 103.3125 89.8125] CT
/Helvetica 13 F
GS
[1 0 0 1 0 0] CT
-15 14 moveto 
1 -1 scale
(6.5%) t 
GR
GR
GS
[0.75 0 0 0.75 0 0] CT
0.902 0.549 0.549 RC
N
113.5 144 M
162 144 L
162 192.5 L
cp
f
GR
GS
[0.75 0 0 0.75 0 0] CT
0.902 0.549 0.549 RC
N
113.5 144 M
162 192.5 L
113.5 192.5 L
cp
f
GR
GS
[0.75 0 0 0.75 0 0] CT
2 setlinecap
10.0 ML
N
113.5 144 M
162 144 L
162 192.5 L
113.5 192.5 L
113.5 144 L
S
GR
GS
[0.75 0 0 0.75 103.3125 126.1875] CT
/Helvetica-Bold 13 F
GS
[1 0 0 1 0 0] CT
-4 -3 moveto 
1 -1 scale
(4) t 
GR
GR
GS
[0.75 0 0 0.75 103.3125 126.1875] CT
/Helvetica 13 F
GS
[1 0 0 1 0 0] CT
-15 14 moveto 
1 -1 scale
(2.4%) t 
GR
GR
GS
[0.75 0 0 0.75 0 0] CT
0.902 0.549 0.549 RC
N
113.5 192.5 M
162 192.5 L
162 241 L
cp
f
GR
GS
[0.75 0 0 0.75 0 0] CT
0.902 0.549 0.549 RC
N
113.5 192.5 M
162 241 L
113.5 241 L
cp
f
GR
GS
[0.75 0 0 0.75 0 0] CT
2 setlinecap
10.0 ML
N
113.5 192.5 M
162 192.5 L
162 241 L
113.5 241 L
113.5 192.5 L
S
GR
GS
[0.75 0 0 0.75 103.3125 162.5625] CT
/Helvetica-Bold 13 F
GS
[1 0 0 1 0 0] CT
-4 -3 moveto 
1 -1 scale
(0) t 
GR
GR
GS
[0.75 0 0 0.75 103.3125 162.5625] CT
/Helvetica 13 F
GS
[1 0 0 1 0 0] CT
-15 14 moveto 
1 -1 scale
(0.0%) t 
GR
GR
GS
[0.75 0 0 0.75 0 0] CT
0.902 0.549 0.549 RC
N
113.5 241 M
162 241 L
162 289.5 L
cp
f
GR
GS
[0.75 0 0 0.75 0 0] CT
0.902 0.549 0.549 RC
N
113.5 241 M
162 289.5 L
113.5 289.5 L
cp
f
GR
GS
[0.75 0 0 0.75 0 0] CT
2 setlinecap
10.0 ML
N
113.5 241 M
162 241 L
162 289.5 L
113.5 289.5 L
113.5 241 L
S
GR
GS
[0.75 0 0 0.75 103.3125 198.9375] CT
/Helvetica-Bold 13 F
GS
[1 0 0 1 0 0] CT
-4 -3 moveto 
1 -1 scale
(0) t 
GR
GR
GS
[0.75 0 0 0.75 103.3125 198.9375] CT
/Helvetica 13 F
GS
[1 0 0 1 0 0] CT
-15 14 moveto 
1 -1 scale
(0.0%) t 
GR
GR
GS
[0.75 0 0 0.75 0 0] CT
0.902 0.549 0.549 RC
N
113.5 289.5 M
162 289.5 L
162 338 L
cp
f
GR
GS
[0.75 0 0 0.75 0 0] CT
0.902 0.549 0.549 RC
N
113.5 289.5 M
162 338 L
113.5 338 L
cp
f
GR
GS
[0.75 0 0 0.75 0 0] CT
2 setlinecap
10.0 ML
N
113.5 289.5 M
162 289.5 L
162 338 L
113.5 338 L
113.5 289.5 L
S
GR
GS
[0.75 0 0 0.75 103.3125 235.3125] CT
/Helvetica-Bold 13 F
GS
[1 0 0 1 0 0] CT
-4 -3 moveto 
1 -1 scale
(0) t 
GR
GR
GS
[0.75 0 0 0.75 103.3125 235.3125] CT
/Helvetica 13 F
GS
[1 0 0 1 0 0] CT
-15 14 moveto 
1 -1 scale
(0.0%) t 
GR
GR
GS
[0.75 0 0 0.75 0 0] CT
0.902 0.549 0.549 RC
N
113.5 338 M
162 338 L
162 386.5 L
cp
f
GR
GS
[0.75 0 0 0.75 0 0] CT
0.902 0.549 0.549 RC
N
113.5 338 M
162 386.5 L
113.5 386.5 L
cp
f
GR
GS
[0.75 0 0 0.75 0 0] CT
2 setlinecap
10.0 ML
N
113.5 338 M
162 338 L
162 386.5 L
113.5 386.5 L
113.5 338 L
S
GR
GS
[0.75 0 0 0.75 103.3125 271.6875] CT
/Helvetica-Bold 13 F
GS
[1 0 0 1 0 0] CT
-4 -3 moveto 
1 -1 scale
(0) t 
GR
GR
GS
[0.75 0 0 0.75 103.3125 271.6875] CT
/Helvetica 13 F
GS
[1 0 0 1 0 0] CT
-15 14 moveto 
1 -1 scale
(0.0%) t 
GR
GR
GS
[0.75 0 0 0.75 0 0] CT
0.502 GC
N
113.5 386.5 M
162 386.5 L
162 435 L
cp
f
GR
GS
[0.75 0 0 0.75 0 0] CT
0.502 GC
N
113.5 386.5 M
162 435 L
113.5 435 L
cp
f
GR
GS
[0.75 0 0 0.75 0 0] CT
2 setlinecap
10.0 ML
N
113.5 386.5 M
162 386.5 L
162 435 L
113.5 435 L
113.5 386.5 L
S
GR
GS
[0.75 0 0 0.75 103.3125 308.0625] CT
0 0.4 0 RC
/Helvetica 13 F
GS
[1 0 0 1 0 0] CT
-18.5 -3 moveto 
1 -1 scale
(44.0%) t 
GR
GR
GS
[0.75 0 0 0.75 103.3125 308.0625] CT
0.4 0 0 RC
/Helvetica 13 F
GS
[1 0 0 1 0 0] CT
-18.5 14 moveto 
1 -1 scale
(56.0%) t 
GR
GR
GS
[0.75 0 0 0.75 0 0] CT
0.902 0.549 0.549 RC
N
162 47 M
210.5 47 L
210.5 95.5 L
cp
f
GR
GS
[0.75 0 0 0.75 0 0] CT
0.902 0.549 0.549 RC
N
162 47 M
210.5 95.5 L
162 95.5 L
cp
f
GR
GS
[0.75 0 0 0.75 0 0] CT
2 setlinecap
10.0 ML
N
162 47 M
210.5 47 L
210.5 95.5 L
162 95.5 L
162 47 L
S
GR
GS
[0.75 0 0 0.75 139.6875 53.4375] CT
/Helvetica-Bold 13 F
GS
[1 0 0 1 0 0] CT
-7.5 -3 moveto 
1 -1 scale
(12) t 
GR
GR
GS
[0.75 0 0 0.75 139.6875 53.4375] CT
/Helvetica 13 F
GS
[1 0 0 1 0 0] CT
-15 14 moveto 
1 -1 scale
(7.1%) t 
GR
GR
GS
[0.75 0 0 0.75 0 0] CT
0.902 0.549 0.549 RC
N
162 95.5 M
210.5 95.5 L
210.5 144 L
cp
f
GR
GS
[0.75 0 0 0.75 0 0] CT
0.902 0.549 0.549 RC
N
162 95.5 M
210.5 144 L
162 144 L
cp
f
GR
GS
[0.75 0 0 0.75 0 0] CT
2 setlinecap
10.0 ML
N
162 95.5 M
210.5 95.5 L
210.5 144 L
162 144 L
162 95.5 L
S
GR
GS
[0.75 0 0 0.75 139.6875 89.8125] CT
/Helvetica-Bold 13 F
GS
[1 0 0 1 0 0] CT
-4 -3 moveto 
1 -1 scale
(3) t 
GR
GR
GS
[0.75 0 0 0.75 139.6875 89.8125] CT
/Helvetica 13 F
GS
[1 0 0 1 0 0] CT
-15 14 moveto 
1 -1 scale
(1.8%) t 
GR
GR
GS
[0.75 0 0 0.75 0 0] CT
0.471 0.902 0.706 RC
N
162 144 M
210.5 144 L
210.5 192.5 L
cp
f
GR
GS
[0.75 0 0 0.75 0 0] CT
0.471 0.902 0.706 RC
N
162 144 M
210.5 192.5 L
162 192.5 L
cp
f
GR
GS
[0.75 0 0 0.75 0 0] CT
2 setlinecap
10.0 ML
N
162 144 M
210.5 144 L
210.5 192.5 L
162 192.5 L
162 144 L
S
GR
GS
[0.75 0 0 0.75 139.6875 126.1875] CT
/Helvetica-Bold 13 F
GS
[1 0 0 1 0 0] CT
-4 -3 moveto 
1 -1 scale
(7) t 
GR
GR
GS
[0.75 0 0 0.75 139.6875 126.1875] CT
/Helvetica 13 F
GS
[1 0 0 1 0 0] CT
-15 14 moveto 
1 -1 scale
(4.1%) t 
GR
GR
GS
[0.75 0 0 0.75 0 0] CT
0.902 0.549 0.549 RC
N
162 192.5 M
210.5 192.5 L
210.5 241 L
cp
f
GR
GS
[0.75 0 0 0.75 0 0] CT
0.902 0.549 0.549 RC
N
162 192.5 M
210.5 241 L
162 241 L
cp
f
GR
GS
[0.75 0 0 0.75 0 0] CT
2 setlinecap
10.0 ML
N
162 192.5 M
210.5 192.5 L
210.5 241 L
162 241 L
162 192.5 L
S
GR
GS
[0.75 0 0 0.75 139.6875 162.5625] CT
/Helvetica-Bold 13 F
GS
[1 0 0 1 0 0] CT
-4 -3 moveto 
1 -1 scale
(1) t 
GR
GR
GS
[0.75 0 0 0.75 139.6875 162.5625] CT
/Helvetica 13 F
GS
[1 0 0 1 0 0] CT
-15 14 moveto 
1 -1 scale
(0.6%) t 
GR
GR
GS
[0.75 0 0 0.75 0 0] CT
0.902 0.549 0.549 RC
N
162 241 M
210.5 241 L
210.5 289.5 L
cp
f
GR
GS
[0.75 0 0 0.75 0 0] CT
0.902 0.549 0.549 RC
N
162 241 M
210.5 289.5 L
162 289.5 L
cp
f
GR
GS
[0.75 0 0 0.75 0 0] CT
2 setlinecap
10.0 ML
N
162 241 M
210.5 241 L
210.5 289.5 L
162 289.5 L
162 241 L
S
GR
GS
[0.75 0 0 0.75 139.6875 198.9375] CT
/Helvetica-Bold 13 F
GS
[1 0 0 1 0 0] CT
-4 -3 moveto 
1 -1 scale
(0) t 
GR
GR
GS
[0.75 0 0 0.75 139.6875 198.9375] CT
/Helvetica 13 F
GS
[1 0 0 1 0 0] CT
-15 14 moveto 
1 -1 scale
(0.0%) t 
GR
GR
GS
[0.75 0 0 0.75 0 0] CT
0.902 0.549 0.549 RC
N
162 289.5 M
210.5 289.5 L
210.5 338 L
cp
f
GR
GS
[0.75 0 0 0.75 0 0] CT
0.902 0.549 0.549 RC
N
162 289.5 M
210.5 338 L
162 338 L
cp
f
GR
GS
[0.75 0 0 0.75 0 0] CT
2 setlinecap
10.0 ML
N
162 289.5 M
210.5 289.5 L
210.5 338 L
162 338 L
162 289.5 L
S
GR
GS
[0.75 0 0 0.75 139.6875 235.3125] CT
/Helvetica-Bold 13 F
GS
[1 0 0 1 0 0] CT
-4 -3 moveto 
1 -1 scale
(0) t 
GR
GR
GS
[0.75 0 0 0.75 139.6875 235.3125] CT
/Helvetica 13 F
GS
[1 0 0 1 0 0] CT
-15 14 moveto 
1 -1 scale
(0.0%) t 
GR
GR
GS
[0.75 0 0 0.75 0 0] CT
0.902 0.549 0.549 RC
N
162 338 M
210.5 338 L
210.5 386.5 L
cp
f
GR
GS
[0.75 0 0 0.75 0 0] CT
0.902 0.549 0.549 RC
N
162 338 M
210.5 386.5 L
162 386.5 L
cp
f
GR
GS
[0.75 0 0 0.75 0 0] CT
2 setlinecap
10.0 ML
N
162 338 M
210.5 338 L
210.5 386.5 L
162 386.5 L
162 338 L
S
GR
GS
[0.75 0 0 0.75 139.6875 271.6875] CT
/Helvetica-Bold 13 F
GS
[1 0 0 1 0 0] CT
-4 -3 moveto 
1 -1 scale
(2) t 
GR
GR
GS
[0.75 0 0 0.75 139.6875 271.6875] CT
/Helvetica 13 F
GS
[1 0 0 1 0 0] CT
-15 14 moveto 
1 -1 scale
(1.2%) t 
GR
GR
GS
[0.75 0 0 0.75 0 0] CT
0.502 GC
N
162 386.5 M
210.5 386.5 L
210.5 435 L
cp
f
GR
GS
[0.75 0 0 0.75 0 0] CT
0.502 GC
N
162 386.5 M
210.5 435 L
162 435 L
cp
f
GR
GS
[0.75 0 0 0.75 0 0] CT
2 setlinecap
10.0 ML
N
162 386.5 M
210.5 386.5 L
210.5 435 L
162 435 L
162 386.5 L
S
GR
GS
[0.75 0 0 0.75 139.6875 308.0625] CT
0 0.4 0 RC
/Helvetica 13 F
GS
[1 0 0 1 0 0] CT
-18.5 -3 moveto 
1 -1 scale
(28.0%) t 
GR
GR
GS
[0.75 0 0 0.75 139.6875 308.0625] CT
0.4 0 0 RC
/Helvetica 13 F
GS
[1 0 0 1 0 0] CT
-18.5 14 moveto 
1 -1 scale
(72.0%) t 
GR
GR
GS
[0.75 0 0 0.75 0 0] CT
0.902 0.549 0.549 RC
N
210.5 47 M
259 47 L
259 95.5 L
cp
f
GR
GS
[0.75 0 0 0.75 0 0] CT
0.902 0.549 0.549 RC
N
210.5 47 M
259 95.5 L
210.5 95.5 L
cp
f
GR
GS
[0.75 0 0 0.75 0 0] CT
2 setlinecap
10.0 ML
N
210.5 47 M
259 47 L
259 95.5 L
210.5 95.5 L
210.5 47 L
S
GR
GS
[0.75 0 0 0.75 176.0625 53.4375] CT
/Helvetica-Bold 13 F
GS
[1 0 0 1 0 0] CT
-4 -3 moveto 
1 -1 scale
(8) t 
GR
GR
GS
[0.75 0 0 0.75 176.0625 53.4375] CT
/Helvetica 13 F
GS
[1 0 0 1 0 0] CT
-15 14 moveto 
1 -1 scale
(4.7%) t 
GR
GR
GS
[0.75 0 0 0.75 0 0] CT
0.902 0.549 0.549 RC
N
210.5 95.5 M
259 95.5 L
259 144 L
cp
f
GR
GS
[0.75 0 0 0.75 0 0] CT
0.902 0.549 0.549 RC
N
210.5 95.5 M
259 144 L
210.5 144 L
cp
f
GR
GS
[0.75 0 0 0.75 0 0] CT
2 setlinecap
10.0 ML
N
210.5 95.5 M
259 95.5 L
259 144 L
210.5 144 L
210.5 95.5 L
S
GR
GS
[0.75 0 0 0.75 176.0625 89.8125] CT
/Helvetica-Bold 13 F
GS
[1 0 0 1 0 0] CT
-4 -3 moveto 
1 -1 scale
(1) t 
GR
GR
GS
[0.75 0 0 0.75 176.0625 89.8125] CT
/Helvetica 13 F
GS
[1 0 0 1 0 0] CT
-15 14 moveto 
1 -1 scale
(0.6%) t 
GR
GR
GS
[0.75 0 0 0.75 0 0] CT
0.902 0.549 0.549 RC
N
210.5 144 M
259 144 L
259 192.5 L
cp
f
GR
GS
[0.75 0 0 0.75 0 0] CT
0.902 0.549 0.549 RC
N
210.5 144 M
259 192.5 L
210.5 192.5 L
cp
f
GR
GS
[0.75 0 0 0.75 0 0] CT
2 setlinecap
10.0 ML
N
210.5 144 M
259 144 L
259 192.5 L
210.5 192.5 L
210.5 144 L
S
GR
GS
[0.75 0 0 0.75 176.0625 126.1875] CT
/Helvetica-Bold 13 F
GS
[1 0 0 1 0 0] CT
-4 -3 moveto 
1 -1 scale
(2) t 
GR
GR
GS
[0.75 0 0 0.75 176.0625 126.1875] CT
/Helvetica 13 F
GS
[1 0 0 1 0 0] CT
-15 14 moveto 
1 -1 scale
(1.2%) t 
GR
GR
GS
[0.75 0 0 0.75 0 0] CT
0.471 0.902 0.706 RC
N
210.5 192.5 M
259 192.5 L
259 241 L
cp
f
GR
GS
[0.75 0 0 0.75 0 0] CT
0.471 0.902 0.706 RC
N
210.5 192.5 M
259 241 L
210.5 241 L
cp
f
GR
GS
[0.75 0 0 0.75 0 0] CT
2 setlinecap
10.0 ML
N
210.5 192.5 M
259 192.5 L
259 241 L
210.5 241 L
210.5 192.5 L
S
GR
GS
[0.75 0 0 0.75 176.0625 162.5625] CT
/Helvetica-Bold 13 F
GS
[1 0 0 1 0 0] CT
-7.5 -3 moveto 
1 -1 scale
(11) t 
GR
GR
GS
[0.75 0 0 0.75 176.0625 162.5625] CT
/Helvetica 13 F
GS
[1 0 0 1 0 0] CT
-15 14 moveto 
1 -1 scale
(6.5%) t 
GR
GR
GS
[0.75 0 0 0.75 0 0] CT
0.902 0.549 0.549 RC
N
210.5 241 M
259 241 L
259 289.5 L
cp
f
GR
GS
[0.75 0 0 0.75 0 0] CT
0.902 0.549 0.549 RC
N
210.5 241 M
259 289.5 L
210.5 289.5 L
cp
f
GR
GS
[0.75 0 0 0.75 0 0] CT
2 setlinecap
10.0 ML
N
210.5 241 M
259 241 L
259 289.5 L
210.5 289.5 L
210.5 241 L
S
GR
GS
[0.75 0 0 0.75 176.0625 198.9375] CT
/Helvetica-Bold 13 F
GS
[1 0 0 1 0 0] CT
-4 -3 moveto 
1 -1 scale
(2) t 
GR
GR
GS
[0.75 0 0 0.75 176.0625 198.9375] CT
/Helvetica 13 F
GS
[1 0 0 1 0 0] CT
-15 14 moveto 
1 -1 scale
(1.2%) t 
GR
GR
GS
[0.75 0 0 0.75 0 0] CT
0.902 0.549 0.549 RC
N
210.5 289.5 M
259 289.5 L
259 338 L
cp
f
GR
GS
[0.75 0 0 0.75 0 0] CT
0.902 0.549 0.549 RC
N
210.5 289.5 M
259 338 L
210.5 338 L
cp
f
GR
GS
[0.75 0 0 0.75 0 0] CT
2 setlinecap
10.0 ML
N
210.5 289.5 M
259 289.5 L
259 338 L
210.5 338 L
210.5 289.5 L
S
GR
GS
[0.75 0 0 0.75 176.0625 235.3125] CT
/Helvetica-Bold 13 F
GS
[1 0 0 1 0 0] CT
-4 -3 moveto 
1 -1 scale
(0) t 
GR
GR
GS
[0.75 0 0 0.75 176.0625 235.3125] CT
/Helvetica 13 F
GS
[1 0 0 1 0 0] CT
-15 14 moveto 
1 -1 scale
(0.0%) t 
GR
GR
GS
[0.75 0 0 0.75 0 0] CT
0.902 0.549 0.549 RC
N
210.5 338 M
259 338 L
259 386.5 L
cp
f
GR
GS
[0.75 0 0 0.75 0 0] CT
0.902 0.549 0.549 RC
N
210.5 338 M
259 386.5 L
210.5 386.5 L
cp
f
GR
GS
[0.75 0 0 0.75 0 0] CT
2 setlinecap
10.0 ML
N
210.5 338 M
259 338 L
259 386.5 L
210.5 386.5 L
210.5 338 L
S
GR
GS
[0.75 0 0 0.75 176.0625 271.6875] CT
/Helvetica-Bold 13 F
GS
[1 0 0 1 0 0] CT
-4 -3 moveto 
1 -1 scale
(2) t 
GR
GR
GS
[0.75 0 0 0.75 176.0625 271.6875] CT
/Helvetica 13 F
GS
[1 0 0 1 0 0] CT
-15 14 moveto 
1 -1 scale
(1.2%) t 
GR
GR
GS
[0.75 0 0 0.75 0 0] CT
0.502 GC
N
210.5 386.5 M
259 386.5 L
259 435 L
cp
f
GR
GS
[0.75 0 0 0.75 0 0] CT
0.502 GC
N
210.5 386.5 M
259 435 L
210.5 435 L
cp
f
GR
GS
[0.75 0 0 0.75 0 0] CT
2 setlinecap
10.0 ML
N
210.5 386.5 M
259 386.5 L
259 435 L
210.5 435 L
210.5 386.5 L
S
GR
GS
[0.75 0 0 0.75 176.0625 308.0625] CT
0 0.4 0 RC
/Helvetica 13 F
GS
[1 0 0 1 0 0] CT
-18.5 -3 moveto 
1 -1 scale
(42.3%) t 
GR
GR
GS
[0.75 0 0 0.75 176.0625 308.0625] CT
0.4 0 0 RC
/Helvetica 13 F
GS
[1 0 0 1 0 0] CT
-18.5 14 moveto 
1 -1 scale
(57.7%) t 
GR
GR
GS
[0.75 0 0 0.75 0 0] CT
0.902 0.549 0.549 RC
N
259 47 M
307.5 47 L
307.5 95.5 L
cp
f
GR
GS
[0.75 0 0 0.75 0 0] CT
0.902 0.549 0.549 RC
N
259 47 M
307.5 95.5 L
259 95.5 L
cp
f
GR
GS
[0.75 0 0 0.75 0 0] CT
2 setlinecap
10.0 ML
N
259 47 M
307.5 47 L
307.5 95.5 L
259 95.5 L
259 47 L
S
GR
GS
[0.75 0 0 0.75 212.4375 53.4375] CT
/Helvetica-Bold 13 F
GS
[1 0 0 1 0 0] CT
-4 -3 moveto 
1 -1 scale
(7) t 
GR
GR
GS
[0.75 0 0 0.75 212.4375 53.4375] CT
/Helvetica 13 F
GS
[1 0 0 1 0 0] CT
-15 14 moveto 
1 -1 scale
(4.1%) t 
GR
GR
GS
[0.75 0 0 0.75 0 0] CT
0.902 0.549 0.549 RC
N
259 95.5 M
307.5 95.5 L
307.5 144 L
cp
f
GR
GS
[0.75 0 0 0.75 0 0] CT
0.902 0.549 0.549 RC
N
259 95.5 M
307.5 144 L
259 144 L
cp
f
GR
GS
[0.75 0 0 0.75 0 0] CT
2 setlinecap
10.0 ML
N
259 95.5 M
307.5 95.5 L
307.5 144 L
259 144 L
259 95.5 L
S
GR
GS
[0.75 0 0 0.75 212.4375 89.8125] CT
/Helvetica-Bold 13 F
GS
[1 0 0 1 0 0] CT
-4 -3 moveto 
1 -1 scale
(0) t 
GR
GR
GS
[0.75 0 0 0.75 212.4375 89.8125] CT
/Helvetica 13 F
GS
[1 0 0 1 0 0] CT
-15 14 moveto 
1 -1 scale
(0.0%) t 
GR
GR
GS
[0.75 0 0 0.75 0 0] CT
0.902 0.549 0.549 RC
N
259 144 M
307.5 144 L
307.5 192.5 L
cp
f
GR
GS
[0.75 0 0 0.75 0 0] CT
0.902 0.549 0.549 RC
N
259 144 M
307.5 192.5 L
259 192.5 L
cp
f
GR
GS
[0.75 0 0 0.75 0 0] CT
2 setlinecap
10.0 ML
N
259 144 M
307.5 144 L
307.5 192.5 L
259 192.5 L
259 144 L
S
GR
GS
[0.75 0 0 0.75 212.4375 126.1875] CT
/Helvetica-Bold 13 F
GS
[1 0 0 1 0 0] CT
-4 -3 moveto 
1 -1 scale
(0) t 
GR
GR
GS
[0.75 0 0 0.75 212.4375 126.1875] CT
/Helvetica 13 F
GS
[1 0 0 1 0 0] CT
-15 14 moveto 
1 -1 scale
(0.0%) t 
GR
GR
GS
[0.75 0 0 0.75 0 0] CT
0.902 0.549 0.549 RC
N
259 192.5 M
307.5 192.5 L
307.5 241 L
cp
f
GR
GS
[0.75 0 0 0.75 0 0] CT
0.902 0.549 0.549 RC
N
259 192.5 M
307.5 241 L
259 241 L
cp
f
GR
GS
[0.75 0 0 0.75 0 0] CT
2 setlinecap
10.0 ML
N
259 192.5 M
307.5 192.5 L
307.5 241 L
259 241 L
259 192.5 L
S
GR
GS
[0.75 0 0 0.75 212.4375 162.5625] CT
/Helvetica-Bold 13 F
GS
[1 0 0 1 0 0] CT
-4 -3 moveto 
1 -1 scale
(2) t 
GR
GR
GS
[0.75 0 0 0.75 212.4375 162.5625] CT
/Helvetica 13 F
GS
[1 0 0 1 0 0] CT
-15 14 moveto 
1 -1 scale
(1.2%) t 
GR
GR
GS
[0.75 0 0 0.75 0 0] CT
0.471 0.902 0.706 RC
N
259 241 M
307.5 241 L
307.5 289.5 L
cp
f
GR
GS
[0.75 0 0 0.75 0 0] CT
0.471 0.902 0.706 RC
N
259 241 M
307.5 289.5 L
259 289.5 L
cp
f
GR
GS
[0.75 0 0 0.75 0 0] CT
2 setlinecap
10.0 ML
N
259 241 M
307.5 241 L
307.5 289.5 L
259 289.5 L
259 241 L
S
GR
GS
[0.75 0 0 0.75 212.4375 198.9375] CT
/Helvetica-Bold 13 F
GS
[1 0 0 1 0 0] CT
-7.5 -3 moveto 
1 -1 scale
(12) t 
GR
GR
GS
[0.75 0 0 0.75 212.4375 198.9375] CT
/Helvetica 13 F
GS
[1 0 0 1 0 0] CT
-15 14 moveto 
1 -1 scale
(7.1%) t 
GR
GR
GS
[0.75 0 0 0.75 0 0] CT
0.902 0.549 0.549 RC
N
259 289.5 M
307.5 289.5 L
307.5 338 L
cp
f
GR
GS
[0.75 0 0 0.75 0 0] CT
0.902 0.549 0.549 RC
N
259 289.5 M
307.5 338 L
259 338 L
cp
f
GR
GS
[0.75 0 0 0.75 0 0] CT
2 setlinecap
10.0 ML
N
259 289.5 M
307.5 289.5 L
307.5 338 L
259 338 L
259 289.5 L
S
GR
GS
[0.75 0 0 0.75 212.4375 235.3125] CT
/Helvetica-Bold 13 F
GS
[1 0 0 1 0 0] CT
-4 -3 moveto 
1 -1 scale
(0) t 
GR
GR
GS
[0.75 0 0 0.75 212.4375 235.3125] CT
/Helvetica 13 F
GS
[1 0 0 1 0 0] CT
-15 14 moveto 
1 -1 scale
(0.0%) t 
GR
GR
GS
[0.75 0 0 0.75 0 0] CT
0.902 0.549 0.549 RC
N
259 338 M
307.5 338 L
307.5 386.5 L
cp
f
GR
GS
[0.75 0 0 0.75 0 0] CT
0.902 0.549 0.549 RC
N
259 338 M
307.5 386.5 L
259 386.5 L
cp
f
GR
GS
[0.75 0 0 0.75 0 0] CT
2 setlinecap
10.0 ML
N
259 338 M
307.5 338 L
307.5 386.5 L
259 386.5 L
259 338 L
S
GR
GS
[0.75 0 0 0.75 212.4375 271.6875] CT
/Helvetica-Bold 13 F
GS
[1 0 0 1 0 0] CT
-4 -3 moveto 
1 -1 scale
(3) t 
GR
GR
GS
[0.75 0 0 0.75 212.4375 271.6875] CT
/Helvetica 13 F
GS
[1 0 0 1 0 0] CT
-15 14 moveto 
1 -1 scale
(1.8%) t 
GR
GR
GS
[0.75 0 0 0.75 0 0] CT
0.502 GC
N
259 386.5 M
307.5 386.5 L
307.5 435 L
cp
f
GR
GS
[0.75 0 0 0.75 0 0] CT
0.502 GC
N
259 386.5 M
307.5 435 L
259 435 L
cp
f
GR
GS
[0.75 0 0 0.75 0 0] CT
2 setlinecap
10.0 ML
N
259 386.5 M
307.5 386.5 L
307.5 435 L
259 435 L
259 386.5 L
S
GR
GS
[0.75 0 0 0.75 212.4375 308.0625] CT
0 0.4 0 RC
/Helvetica 13 F
GS
[1 0 0 1 0 0] CT
-18.5 -3 moveto 
1 -1 scale
(50.0%) t 
GR
GR
GS
[0.75 0 0 0.75 212.4375 308.0625] CT
0.4 0 0 RC
/Helvetica 13 F
GS
[1 0 0 1 0 0] CT
-18.5 14 moveto 
1 -1 scale
(50.0%) t 
GR
GR
GS
[0.75 0 0 0.75 0 0] CT
0.902 0.549 0.549 RC
N
307.5 47 M
356 47 L
356 95.5 L
cp
f
GR
GS
[0.75 0 0 0.75 0 0] CT
0.902 0.549 0.549 RC
N
307.5 47 M
356 95.5 L
307.5 95.5 L
cp
f
GR
GS
[0.75 0 0 0.75 0 0] CT
2 setlinecap
10.0 ML
N
307.5 47 M
356 47 L
356 95.5 L
307.5 95.5 L
307.5 47 L
S
GR
GS
[0.75 0 0 0.75 248.8125 53.4375] CT
/Helvetica-Bold 13 F
GS
[1 0 0 1 0 0] CT
-4 -3 moveto 
1 -1 scale
(1) t 
GR
GR
GS
[0.75 0 0 0.75 248.8125 53.4375] CT
/Helvetica 13 F
GS
[1 0 0 1 0 0] CT
-15 14 moveto 
1 -1 scale
(0.6%) t 
GR
GR
GS
[0.75 0 0 0.75 0 0] CT
0.902 0.549 0.549 RC
N
307.5 95.5 M
356 95.5 L
356 144 L
cp
f
GR
GS
[0.75 0 0 0.75 0 0] CT
0.902 0.549 0.549 RC
N
307.5 95.5 M
356 144 L
307.5 144 L
cp
f
GR
GS
[0.75 0 0 0.75 0 0] CT
2 setlinecap
10.0 ML
N
307.5 95.5 M
356 95.5 L
356 144 L
307.5 144 L
307.5 95.5 L
S
GR
GS
[0.75 0 0 0.75 248.8125 89.8125] CT
/Helvetica-Bold 13 F
GS
[1 0 0 1 0 0] CT
-4 -3 moveto 
1 -1 scale
(0) t 
GR
GR
GS
[0.75 0 0 0.75 248.8125 89.8125] CT
/Helvetica 13 F
GS
[1 0 0 1 0 0] CT
-15 14 moveto 
1 -1 scale
(0.0%) t 
GR
GR
GS
[0.75 0 0 0.75 0 0] CT
0.902 0.549 0.549 RC
N
307.5 144 M
356 144 L
356 192.5 L
cp
f
GR
GS
[0.75 0 0 0.75 0 0] CT
0.902 0.549 0.549 RC
N
307.5 144 M
356 192.5 L
307.5 192.5 L
cp
f
GR
GS
[0.75 0 0 0.75 0 0] CT
2 setlinecap
10.0 ML
N
307.5 144 M
356 144 L
356 192.5 L
307.5 192.5 L
307.5 144 L
S
GR
GS
[0.75 0 0 0.75 248.8125 126.1875] CT
/Helvetica-Bold 13 F
GS
[1 0 0 1 0 0] CT
-4 -3 moveto 
1 -1 scale
(0) t 
GR
GR
GS
[0.75 0 0 0.75 248.8125 126.1875] CT
/Helvetica 13 F
GS
[1 0 0 1 0 0] CT
-15 14 moveto 
1 -1 scale
(0.0%) t 
GR
GR
GS
[0.75 0 0 0.75 0 0] CT
0.902 0.549 0.549 RC
N
307.5 192.5 M
356 192.5 L
356 241 L
cp
f
GR
GS
[0.75 0 0 0.75 0 0] CT
0.902 0.549 0.549 RC
N
307.5 192.5 M
356 241 L
307.5 241 L
cp
f
GR
GS
[0.75 0 0 0.75 0 0] CT
2 setlinecap
10.0 ML
N
307.5 192.5 M
356 192.5 L
356 241 L
307.5 241 L
307.5 192.5 L
S
GR
GS
[0.75 0 0 0.75 248.8125 162.5625] CT
/Helvetica-Bold 13 F
GS
[1 0 0 1 0 0] CT
-4 -3 moveto 
1 -1 scale
(5) t 
GR
GR
GS
[0.75 0 0 0.75 248.8125 162.5625] CT
/Helvetica 13 F
GS
[1 0 0 1 0 0] CT
-15 14 moveto 
1 -1 scale
(2.9%) t 
GR
GR
GS
[0.75 0 0 0.75 0 0] CT
0.902 0.549 0.549 RC
N
307.5 241 M
356 241 L
356 289.5 L
cp
f
GR
GS
[0.75 0 0 0.75 0 0] CT
0.902 0.549 0.549 RC
N
307.5 241 M
356 289.5 L
307.5 289.5 L
cp
f
GR
GS
[0.75 0 0 0.75 0 0] CT
2 setlinecap
10.0 ML
N
307.5 241 M
356 241 L
356 289.5 L
307.5 289.5 L
307.5 241 L
S
GR
GS
[0.75 0 0 0.75 248.8125 198.9375] CT
/Helvetica-Bold 13 F
GS
[1 0 0 1 0 0] CT
-4 -3 moveto 
1 -1 scale
(0) t 
GR
GR
GS
[0.75 0 0 0.75 248.8125 198.9375] CT
/Helvetica 13 F
GS
[1 0 0 1 0 0] CT
-15 14 moveto 
1 -1 scale
(0.0%) t 
GR
GR
GS
[0.75 0 0 0.75 0 0] CT
0.471 0.902 0.706 RC
N
307.5 289.5 M
356 289.5 L
356 338 L
cp
f
GR
GS
[0.75 0 0 0.75 0 0] CT
0.471 0.902 0.706 RC
N
307.5 289.5 M
356 338 L
307.5 338 L
cp
f
GR
GS
[0.75 0 0 0.75 0 0] CT
2 setlinecap
10.0 ML
N
307.5 289.5 M
356 289.5 L
356 338 L
307.5 338 L
307.5 289.5 L
S
GR
GS
[0.75 0 0 0.75 248.8125 235.3125] CT
/Helvetica-Bold 13 F
GS
[1 0 0 1 0 0] CT
-7.5 -3 moveto 
1 -1 scale
(14) t 
GR
GR
GS
[0.75 0 0 0.75 248.8125 235.3125] CT
/Helvetica 13 F
GS
[1 0 0 1 0 0] CT
-15 14 moveto 
1 -1 scale
(8.2%) t 
GR
GR
GS
[0.75 0 0 0.75 0 0] CT
0.902 0.549 0.549 RC
N
307.5 338 M
356 338 L
356 386.5 L
cp
f
GR
GS
[0.75 0 0 0.75 0 0] CT
0.902 0.549 0.549 RC
N
307.5 338 M
356 386.5 L
307.5 386.5 L
cp
f
GR
GS
[0.75 0 0 0.75 0 0] CT
2 setlinecap
10.0 ML
N
307.5 338 M
356 338 L
356 386.5 L
307.5 386.5 L
307.5 338 L
S
GR
GS
[0.75 0 0 0.75 248.8125 271.6875] CT
/Helvetica-Bold 13 F
GS
[1 0 0 1 0 0] CT
-4 -3 moveto 
1 -1 scale
(0) t 
GR
GR
GS
[0.75 0 0 0.75 248.8125 271.6875] CT
/Helvetica 13 F
GS
[1 0 0 1 0 0] CT
-15 14 moveto 
1 -1 scale
(0.0%) t 
GR
GR
GS
[0.75 0 0 0.75 0 0] CT
0.502 GC
N
307.5 386.5 M
356 386.5 L
356 435 L
cp
f
GR
GS
[0.75 0 0 0.75 0 0] CT
0.502 GC
N
307.5 386.5 M
356 435 L
307.5 435 L
cp
f
GR
GS
[0.75 0 0 0.75 0 0] CT
2 setlinecap
10.0 ML
N
307.5 386.5 M
356 386.5 L
356 435 L
307.5 435 L
307.5 386.5 L
S
GR
GS
[0.75 0 0 0.75 248.8125 308.0625] CT
0 0.4 0 RC
/Helvetica 13 F
GS
[1 0 0 1 0 0] CT
-18.5 -3 moveto 
1 -1 scale
(70.0%) t 
GR
GR
GS
[0.75 0 0 0.75 248.8125 308.0625] CT
0.4 0 0 RC
/Helvetica 13 F
GS
[1 0 0 1 0 0] CT
-18.5 14 moveto 
1 -1 scale
(30.0%) t 
GR
GR
GS
[0.75 0 0 0.75 0 0] CT
0.902 0.549 0.549 RC
N
356 47 M
404.5 47 L
404.5 95.5 L
cp
f
GR
GS
[0.75 0 0 0.75 0 0] CT
0.902 0.549 0.549 RC
N
356 47 M
404.5 95.5 L
356 95.5 L
cp
f
GR
GS
[0.75 0 0 0.75 0 0] CT
2 setlinecap
10.0 ML
N
356 47 M
404.5 47 L
404.5 95.5 L
356 95.5 L
356 47 L
S
GR
GS
[0.75 0 0 0.75 285.1875 53.4375] CT
/Helvetica-Bold 13 F
GS
[1 0 0 1 0 0] CT
-4 -3 moveto 
1 -1 scale
(8) t 
GR
GR
GS
[0.75 0 0 0.75 285.1875 53.4375] CT
/Helvetica 13 F
GS
[1 0 0 1 0 0] CT
-15 14 moveto 
1 -1 scale
(4.7%) t 
GR
GR
GS
[0.75 0 0 0.75 0 0] CT
0.902 0.549 0.549 RC
N
356 95.5 M
404.5 95.5 L
404.5 144 L
cp
f
GR
GS
[0.75 0 0 0.75 0 0] CT
0.902 0.549 0.549 RC
N
356 95.5 M
404.5 144 L
356 144 L
cp
f
GR
GS
[0.75 0 0 0.75 0 0] CT
2 setlinecap
10.0 ML
N
356 95.5 M
404.5 95.5 L
404.5 144 L
356 144 L
356 95.5 L
S
GR
GS
[0.75 0 0 0.75 285.1875 89.8125] CT
/Helvetica-Bold 13 F
GS
[1 0 0 1 0 0] CT
-4 -3 moveto 
1 -1 scale
(1) t 
GR
GR
GS
[0.75 0 0 0.75 285.1875 89.8125] CT
/Helvetica 13 F
GS
[1 0 0 1 0 0] CT
-15 14 moveto 
1 -1 scale
(0.6%) t 
GR
GR
GS
[0.75 0 0 0.75 0 0] CT
0.902 0.549 0.549 RC
N
356 144 M
404.5 144 L
404.5 192.5 L
cp
f
GR
GS
[0.75 0 0 0.75 0 0] CT
0.902 0.549 0.549 RC
N
356 144 M
404.5 192.5 L
356 192.5 L
cp
f
GR
GS
[0.75 0 0 0.75 0 0] CT
2 setlinecap
10.0 ML
N
356 144 M
404.5 144 L
404.5 192.5 L
356 192.5 L
356 144 L
S
GR
GS
[0.75 0 0 0.75 285.1875 126.1875] CT
/Helvetica-Bold 13 F
GS
[1 0 0 1 0 0] CT
-4 -3 moveto 
1 -1 scale
(0) t 
GR
GR
GS
[0.75 0 0 0.75 285.1875 126.1875] CT
/Helvetica 13 F
GS
[1 0 0 1 0 0] CT
-15 14 moveto 
1 -1 scale
(0.0%) t 
GR
GR
GS
[0.75 0 0 0.75 0 0] CT
0.902 0.549 0.549 RC
N
356 192.5 M
404.5 192.5 L
404.5 241 L
cp
f
GR
GS
[0.75 0 0 0.75 0 0] CT
0.902 0.549 0.549 RC
N
356 192.5 M
404.5 241 L
356 241 L
cp
f
GR
GS
[0.75 0 0 0.75 0 0] CT
2 setlinecap
10.0 ML
N
356 192.5 M
404.5 192.5 L
404.5 241 L
356 241 L
356 192.5 L
S
GR
GS
[0.75 0 0 0.75 285.1875 162.5625] CT
/Helvetica-Bold 13 F
GS
[1 0 0 1 0 0] CT
-4 -3 moveto 
1 -1 scale
(4) t 
GR
GR
GS
[0.75 0 0 0.75 285.1875 162.5625] CT
/Helvetica 13 F
GS
[1 0 0 1 0 0] CT
-15 14 moveto 
1 -1 scale
(2.4%) t 
GR
GR
GS
[0.75 0 0 0.75 0 0] CT
0.902 0.549 0.549 RC
N
356 241 M
404.5 241 L
404.5 289.5 L
cp
f
GR
GS
[0.75 0 0 0.75 0 0] CT
0.902 0.549 0.549 RC
N
356 241 M
404.5 289.5 L
356 289.5 L
cp
f
GR
GS
[0.75 0 0 0.75 0 0] CT
2 setlinecap
10.0 ML
N
356 241 M
404.5 241 L
404.5 289.5 L
356 289.5 L
356 241 L
S
GR
GS
[0.75 0 0 0.75 285.1875 198.9375] CT
/Helvetica-Bold 13 F
GS
[1 0 0 1 0 0] CT
-4 -3 moveto 
1 -1 scale
(0) t 
GR
GR
GS
[0.75 0 0 0.75 285.1875 198.9375] CT
/Helvetica 13 F
GS
[1 0 0 1 0 0] CT
-15 14 moveto 
1 -1 scale
(0.0%) t 
GR
GR
GS
[0.75 0 0 0.75 0 0] CT
0.902 0.549 0.549 RC
N
356 289.5 M
404.5 289.5 L
404.5 338 L
cp
f
GR
GS
[0.75 0 0 0.75 0 0] CT
0.902 0.549 0.549 RC
N
356 289.5 M
404.5 338 L
356 338 L
cp
f
GR
GS
[0.75 0 0 0.75 0 0] CT
2 setlinecap
10.0 ML
N
356 289.5 M
404.5 289.5 L
404.5 338 L
356 338 L
356 289.5 L
S
GR
GS
[0.75 0 0 0.75 285.1875 235.3125] CT
/Helvetica-Bold 13 F
GS
[1 0 0 1 0 0] CT
-4 -3 moveto 
1 -1 scale
(0) t 
GR
GR
GS
[0.75 0 0 0.75 285.1875 235.3125] CT
/Helvetica 13 F
GS
[1 0 0 1 0 0] CT
-15 14 moveto 
1 -1 scale
(0.0%) t 
GR
GR
GS
[0.75 0 0 0.75 0 0] CT
0.471 0.902 0.706 RC
N
356 338 M
404.5 338 L
404.5 386.5 L
cp
f
GR
GS
[0.75 0 0 0.75 0 0] CT
0.471 0.902 0.706 RC
N
356 338 M
404.5 386.5 L
356 386.5 L
cp
f
GR
GS
[0.75 0 0 0.75 0 0] CT
2 setlinecap
10.0 ML
N
356 338 M
404.5 338 L
404.5 386.5 L
356 386.5 L
356 338 L
S
GR
GS
[0.75 0 0 0.75 285.1875 271.6875] CT
/Helvetica-Bold 13 F
GS
[1 0 0 1 0 0] CT
-7.5 -3 moveto 
1 -1 scale
(12) t 
GR
GR
GS
[0.75 0 0 0.75 285.1875 271.6875] CT
/Helvetica 13 F
GS
[1 0 0 1 0 0] CT
-15 14 moveto 
1 -1 scale
(7.1%) t 
GR
GR
GS
[0.75 0 0 0.75 0 0] CT
0.502 GC
N
356 386.5 M
404.5 386.5 L
404.5 435 L
cp
f
GR
GS
[0.75 0 0 0.75 0 0] CT
0.502 GC
N
356 386.5 M
404.5 435 L
356 435 L
cp
f
GR
GS
[0.75 0 0 0.75 0 0] CT
2 setlinecap
10.0 ML
N
356 386.5 M
404.5 386.5 L
404.5 435 L
356 435 L
356 386.5 L
S
GR
GS
[0.75 0 0 0.75 285.1875 308.0625] CT
0 0.4 0 RC
/Helvetica 13 F
GS
[1 0 0 1 0 0] CT
-18.5 -3 moveto 
1 -1 scale
(48.0%) t 
GR
GR
GS
[0.75 0 0 0.75 285.1875 308.0625] CT
0.4 0 0 RC
/Helvetica 13 F
GS
[1 0 0 1 0 0] CT
-18.5 14 moveto 
1 -1 scale
(52.0%) t 
GR
GR
GS
[0.75 0 0 0.75 0 0] CT
0.502 GC
N
404.5 47 M
453 47 L
453 95.5 L
cp
f
GR
GS
[0.75 0 0 0.75 0 0] CT
0.502 GC
N
404.5 47 M
453 95.5 L
404.5 95.5 L
cp
f
GR
GS
[0.75 0 0 0.75 0 0] CT
2 setlinecap
10.0 ML
N
404.5 47 M
453 47 L
453 95.5 L
404.5 95.5 L
404.5 47 L
S
GR
GS
[0.75 0 0 0.75 321.5625 53.4375] CT
0 0.4 0 RC
/Helvetica 13 F
GS
[1 0 0 1 0 0] CT
-18.5 -3 moveto 
1 -1 scale
(24.6%) t 
GR
GR
GS
[0.75 0 0 0.75 321.5625 53.4375] CT
0.4 0 0 RC
/Helvetica 13 F
GS
[1 0 0 1 0 0] CT
-18.5 14 moveto 
1 -1 scale
(75.4%) t 
GR
GR
GS
[0.75 0 0 0.75 0 0] CT
0.502 GC
N
404.5 95.5 M
453 95.5 L
453 144 L
cp
f
GR
GS
[0.75 0 0 0.75 0 0] CT
0.502 GC
N
404.5 95.5 M
453 144 L
404.5 144 L
cp
f
GR
GS
[0.75 0 0 0.75 0 0] CT
2 setlinecap
10.0 ML
N
404.5 95.5 M
453 95.5 L
453 144 L
404.5 144 L
404.5 95.5 L
S
GR
GS
[0.75 0 0 0.75 321.5625 89.8125] CT
0 0.4 0 RC
/Helvetica 13 F
GS
[1 0 0 1 0 0] CT
-18.5 -3 moveto 
1 -1 scale
(50.0%) t 
GR
GR
GS
[0.75 0 0 0.75 321.5625 89.8125] CT
0.4 0 0 RC
/Helvetica 13 F
GS
[1 0 0 1 0 0] CT
-18.5 14 moveto 
1 -1 scale
(50.0%) t 
GR
GR
GS
[0.75 0 0 0.75 0 0] CT
0.502 GC
N
404.5 144 M
453 144 L
453 192.5 L
cp
f
GR
GS
[0.75 0 0 0.75 0 0] CT
0.502 GC
N
404.5 144 M
453 192.5 L
404.5 192.5 L
cp
f
GR
GS
[0.75 0 0 0.75 0 0] CT
2 setlinecap
10.0 ML
N
404.5 144 M
453 144 L
453 192.5 L
404.5 192.5 L
404.5 144 L
S
GR
GS
[0.75 0 0 0.75 321.5625 126.1875] CT
0 0.4 0 RC
/Helvetica 13 F
GS
[1 0 0 1 0 0] CT
-18.5 -3 moveto 
1 -1 scale
(53.8%) t 
GR
GR
GS
[0.75 0 0 0.75 321.5625 126.1875] CT
0.4 0 0 RC
/Helvetica 13 F
GS
[1 0 0 1 0 0] CT
-18.5 14 moveto 
1 -1 scale
(46.2%) t 
GR
GR
GS
[0.75 0 0 0.75 0 0] CT
0.502 GC
N
404.5 192.5 M
453 192.5 L
453 241 L
cp
f
GR
GS
[0.75 0 0 0.75 0 0] CT
0.502 GC
N
404.5 192.5 M
453 241 L
404.5 241 L
cp
f
GR
GS
[0.75 0 0 0.75 0 0] CT
2 setlinecap
10.0 ML
N
404.5 192.5 M
453 192.5 L
453 241 L
404.5 241 L
404.5 192.5 L
S
GR
GS
[0.75 0 0 0.75 321.5625 162.5625] CT
0 0.4 0 RC
/Helvetica 13 F
GS
[1 0 0 1 0 0] CT
-18.5 -3 moveto 
1 -1 scale
(40.7%) t 
GR
GR
GS
[0.75 0 0 0.75 321.5625 162.5625] CT
0.4 0 0 RC
/Helvetica 13 F
GS
[1 0 0 1 0 0] CT
-18.5 14 moveto 
1 -1 scale
(59.3%) t 
GR
GR
GS
[0.75 0 0 0.75 0 0] CT
0.502 GC
N
404.5 241 M
453 241 L
453 289.5 L
cp
f
GR
GS
[0.75 0 0 0.75 0 0] CT
0.502 GC
N
404.5 241 M
453 289.5 L
404.5 289.5 L
cp
f
GR
GS
[0.75 0 0 0.75 0 0] CT
2 setlinecap
10.0 ML
N
404.5 241 M
453 241 L
453 289.5 L
404.5 289.5 L
404.5 241 L
S
GR
GS
[0.75 0 0 0.75 321.5625 198.9375] CT
0 0.4 0 RC
/Helvetica 13 F
GS
[1 0 0 1 0 0] CT
-18.5 -3 moveto 
1 -1 scale
(85.7%) t 
GR
GR
GS
[0.75 0 0 0.75 321.5625 198.9375] CT
0.4 0 0 RC
/Helvetica 13 F
GS
[1 0 0 1 0 0] CT
-18.5 14 moveto 
1 -1 scale
(14.3%) t 
GR
GR
GS
[0.75 0 0 0.75 0 0] CT
0.502 GC
N
404.5 289.5 M
453 289.5 L
453 338 L
cp
f
GR
GS
[0.75 0 0 0.75 0 0] CT
0.502 GC
N
404.5 289.5 M
453 338 L
404.5 338 L
cp
f
GR
GS
[0.75 0 0 0.75 0 0] CT
2 setlinecap
10.0 ML
N
404.5 289.5 M
453 289.5 L
453 338 L
404.5 338 L
404.5 289.5 L
S
GR
GS
[0.75 0 0 0.75 321.5625 235.3125] CT
0 0.4 0 RC
/Helvetica 13 F
GS
[1 0 0 1 0 0] CT
-17 -3 moveto 
1 -1 scale
(100%) t 
GR
GR
GS
[0.75 0 0 0.75 321.5625 235.3125] CT
0.4 0 0 RC
/Helvetica 13 F
GS
[1 0 0 1 0 0] CT
-15 14 moveto 
1 -1 scale
(0.0%) t 
GR
GR
GS
[0.75 0 0 0.75 0 0] CT
0.502 GC
N
404.5 338 M
453 338 L
453 386.5 L
cp
f
GR
GS
[0.75 0 0 0.75 0 0] CT
0.502 GC
N
404.5 338 M
453 386.5 L
404.5 386.5 L
cp
f
GR
GS
[0.75 0 0 0.75 0 0] CT
2 setlinecap
10.0 ML
N
404.5 338 M
453 338 L
453 386.5 L
404.5 386.5 L
404.5 338 L
S
GR
GS
[0.75 0 0 0.75 321.5625 271.6875] CT
0 0.4 0 RC
/Helvetica 13 F
GS
[1 0 0 1 0 0] CT
-18.5 -3 moveto 
1 -1 scale
(63.2%) t 
GR
GR
GS
[0.75 0 0 0.75 321.5625 271.6875] CT
0.4 0 0 RC
/Helvetica 13 F
GS
[1 0 0 1 0 0] CT
-18.5 14 moveto 
1 -1 scale
(36.8%) t 
GR
GR
GS
[0.75 0 0 0.75 0 0] CT
0.471 0.588 0.902 RC
N
404.5 386.5 M
453 386.5 L
453 435 L
cp
f
GR
GS
[0.75 0 0 0.75 0 0] CT
0.471 0.588 0.902 RC
N
404.5 386.5 M
453 435 L
404.5 435 L
cp
f
GR
GS
[0.75 0 0 0.75 0 0] CT
2 setlinecap
10.0 ML
N
404.5 386.5 M
453 386.5 L
453 435 L
404.5 435 L
404.5 386.5 L
S
GR
GS
[0.75 0 0 0.75 321.5625 308.0625] CT
0 0.4 0 RC
/Helvetica-Bold 13 F
GS
[1 0 0 1 0 0] CT
-18.5 -3 moveto 
1 -1 scale
(48.2%) t 
GR
GR
GS
[0.75 0 0 0.75 321.5625 308.0625] CT
0.4 0 0 RC
/Helvetica-Bold 13 F
GS
[1 0 0 1 0 0] CT
-18.5 14 moveto 
1 -1 scale
(51.8%) t 
GR
GR
GS
[0.75 0 0 0.75 0 0] CT
0.251 GC
2 setlinecap
10.0 ML
2.667 LW
N
404.5 47 M
404.5 435 L
S
GR
GS
[0.75 0 0 0.75 0 0] CT
0.251 GC
2 setlinecap
10.0 ML
2.667 LW
N
65 386.5 M
453 386.5 L
S
GR
GS
[0.75 0 0 0.75 194.25018 33] CT
/Helvetica-Bold 16 F
GS
[1 0 0 1 0 0] CT
-68 -4 moveto 
1 -1 scale
( Confusion Matrix) t 
GR
GR
%%Trailer
%%Pages: 1
%%EOF
